{
  "project_info": {
    "project_number": "59232235529",
    "firebase_url": "https://findyourplace-57029.firebaseio.com",
    "project_id": "findyourplace-57029",
    "storage_bucket": "findyourplace-57029.appspot.com"
  },
  "client": [
    {
      "client_info": {
        "mobilesdk_app_id": "1:59232235529:android:d5cb93f7e3f45631",
        "android_client_info": {
          "package_name": "it.findyourapp.android"
        }
      },
      "oauth_client": [
        {
          "client_id": "59232235529-4r2bf8rs5n1t3vgtiuhh00g7jntpcrgs.apps.googleusercontent.com",
          "client_type": 3
        }
      ],
      "api_key": [
        {
          "current_key": "AIzaSyAkRLPIkXYBqFm68EntU1HpM5o9M3A5JHk"
        }
      ],
      "services": {
        "analytics_service": {
          "status": 1
        },
        "appinvite_service": {
          "status": 1,
          "other_platform_oauth_client": []
        },
        "ads_service": {
          "status": 2
        }
      }
    }
  ],
  "configuration_version": "1"
}